{
    "dependencies": {
        "all-named-html-entities": 2,
        "ansi-diff-stream": 1,
        "ansi-regex": 1,
        "array-includes-all": 1,
        "array-includes-with-glob": 1,
        "array-pull-all-with-glob": 2,
        "arrayiffy-if-string": 10,
        "ast-compare": 3,
        "ast-contains-only-empty-space": 3,
        "ast-deep-contains": 1,
        "ast-get-values-by-key": 1,
        "ast-is-empty": 2,
        "ast-monkey": 2,
        "ast-monkey-traverse": 10,
        "ast-monkey-util": 2,
        "bitbucket-slug": 1,
        "chalk": 6,
        "check-types-mini": 4,
        "chlu": 1,
        "codsen-parser": 1,
        "codsen-tokenizer": 2,
        "compare-versions": 1,
        "csv-sort": 1,
        "csv-split-easy": 1,
        "currency.js": 1,
        "define-lazy-prop": 1,
        "dehumanize-date": 1,
        "dom-serializer": 1,
        "domutils-bastardised": 1,
        "easy-replace": 1,
        "edit-package-json": 1,
        "email-all-chars-within-ascii": 1,
        "email-comb": 1,
        "emoji-regex": 1,
        "ent": 2,
        "execa": 2,
        "filesize": 1,
        "find-file-recursively-up": 1,
        "format-package": 2,
        "fs-extra": 9,
        "generate-atomic-css": 1,
        "get-pkg-repo": 2,
        "github-slugger": 1,
        "globby": 10,
        "he": 4,
        "hex-color-regex": 1,
        "html-all-known-attributes": 2,
        "html-comment-regex": 1,
        "html-dom-parser": 1,
        "html-entities-not-email-friendly": 2,
        "import-modules": 1,
        "inquirer": 3,
        "is-d": 5,
        "is-html-tag-opening": 1,
        "is-language-code": 1,
        "is-media-descriptor": 1,
        "is-numeric": 2,
        "is-online": 1,
        "is-relative-uri": 1,
        "is-string-int": 1,
        "is-url-superb": 1,
        "isstream": 1,
        "js-row-num": 2,
        "json-comb-core": 1,
        "lerna-clean-changelogs": 1,
        "leven": 2,
        "line-column": 1,
        "lodash.camelcase": 1,
        "lodash.clonedeep": 22,
        "lodash.deburr": 1,
        "lodash.includes": 3,
        "lodash.intersection": 3,
        "lodash.isequal": 1,
        "lodash.isplainobject": 30,
        "lodash.isregexp": 2,
        "lodash.merge": 1,
        "lodash.min": 1,
        "lodash.partition": 1,
        "lodash.pull": 2,
        "lodash.pullall": 4,
        "lodash.trim": 4,
        "lodash.uniq": 7,
        "lodash.without": 1,
        "log-symbols": 2,
        "log-update": 1,
        "matcher": 10,
        "meow": 13,
        "mime-db": 1,
        "object-all-values-equal-to": 1,
        "object-delete-key": 1,
        "object-fill-missing-keys": 1,
        "object-flatten-all-arrays": 1,
        "object-merge-advanced": 4,
        "object-no-new-keys": 1,
        "object-path": 7,
        "object-set-all-values-to": 1,
        "p-filter": 2,
        "p-map": 4,
        "p-one": 1,
        "p-progress": 1,
        "p-reduce": 9,
        "package-json-editor": 1,
        "pacote": 1,
        "plugin-error": 1,
        "ranges-apply": 15,
        "ranges-crop": 2,
        "ranges-invert": 2,
        "ranges-is-index-within": 2,
        "ranges-merge": 7,
        "ranges-process-outside": 1,
        "ranges-push": 10,
        "ranges-sort": 1,
        "regex-empty-conditional-comments": 1,
        "request": 1,
        "rgba-regex": 1,
        "runes": 1,
        "semver-compare": 2,
        "semver-regex": 1,
        "simple-git": 1,
        "sort-keys": 1,
        "sorted-object": 1,
        "split2": 1,
        "str-indexes-of-plus": 1,
        "string-apostrophes": 1,
        "string-character-is-astral-surrogate": 1,
        "string-collapse-leading-whitespace": 1,
        "string-collapse-white-space": 1,
        "string-extract-class-names": 1,
        "string-find-heads-tails": 1,
        "string-find-malformed": 2,
        "string-fix-broken-named-entities": 2,
        "string-left-right": 13,
        "string-match-left-right": 10,
        "string-process-comma-separated": 2,
        "string-range-expander": 3,
        "string-remove-duplicate-heads-tails": 1,
        "string-remove-thousand-separators": 1,
        "string-remove-widows": 1,
        "string-splice": 1,
        "string-strip-html": 1,
        "string-trim-spaces-only": 3,
        "string-uglify": 1,
        "string-unfancy": 1,
        "through2": 1,
        "type-detect": 4,
        "unescape-js": 1,
        "update-notifier": 13,
        "url-regex": 1,
        "util-array-object-or-both": 2,
        "util-nonempty": 1,
        "write-file-atomic": 6,
        "write-json-file": 1
    },
    "devDependencies": {
        "@babel/core": 111,
        "@babel/polyfill": 1,
        "@babel/preset-env": 111,
        "@rollup/plugin-commonjs": 111,
        "@rollup/plugin-json": 32,
        "@rollup/plugin-node-resolve": 111,
        "@rollup/plugin-strip": 111,
        "array-shuffle": 1,
        "ast-deep-contains": 1,
        "ast-monkey-traverse": 1,
        "benchmark": 99,
        "deep-equal": 1,
        "eslint": 15,
        "eslint-config-prettier": 14,
        "eslint-plugin-import": 14,
        "eslint-plugin-no-unsanitized": 14,
        "eslint-plugin-prettier": 14,
        "eslint-plugin-row-num": 14,
        "execa": 10,
        "fs-extra": 3,
        "html-crush": 1,
        "is-ci": 1,
        "json-stringify-safe": 1,
        "lect": 111,
        "lodash.clonedeep": 5,
        "lodash.isequal": 3,
        "map-stream": 1,
        "node-fetch": 1,
        "object-boolean-combinations": 1,
        "object-delete-key": 1,
        "object-path": 6,
        "p-map": 4,
        "posthtml-parser": 1,
        "prettier": 14,
        "ranges-apply": 6,
        "ranges-merge": 1,
        "rollup": 98,
        "rollup-plugin-ascii": 98,
        "rollup-plugin-babel": 98,
        "rollup-plugin-banner": 98,
        "rollup-plugin-cleanup": 98,
        "rollup-plugin-node-builtins": 9,
        "rollup-plugin-node-globals": 1,
        "rollup-plugin-terser": 98,
        "string-find-heads-tails": 1,
        "tap": 111,
        "tempy": 12,
        "vinyl-string": 1
    },
    "top10ExternalDeps": [
        {
            "lodash.isplainobject": 30
        },
        {
            "lodash.clonedeep": 22
        },
        {
            "meow": 13
        },
        {
            "update-notifier": 13
        },
        {
            "matcher": 10
        },
        {
            "globby": 10
        },
        {
            "fs-extra": 9
        },
        {
            "p-reduce": 9
        },
        {
            "lodash.uniq": 7
        },
        {
            "object-path": 7
        }
    ],
    "top10OwnDeps": [
        {
            "ranges-apply": 15
        },
        {
            "string-left-right": 13
        },
        {
            "ast-monkey-traverse": 10
        },
        {
            "arrayiffy-if-string": 10
        },
        {
            "string-match-left-right": 10
        },
        {
            "ranges-push": 10
        },
        {
            "ranges-merge": 7
        },
        {
            "check-types-mini": 4
        },
        {
            "object-merge-advanced": 4
        },
        {
            "ast-contains-only-empty-space": 3
        }
    ]
}