[
    {
        "name": "all-named-html-entities",
        "size": 232538,
        "imports": []
    },
    {
        "name": "array-group-str-omit-num-char",
        "size": 2885,
        "imports": [
            "ranges-apply"
        ]
    },
    {
        "name": "array-includes-with-glob",
        "size": 2576,
        "imports": []
    },
    {
        "name": "array-of-arrays-into-ast",
        "size": 1370,
        "imports": [
            "check-types-mini",
            "object-merge-advanced"
        ]
    },
    {
        "name": "array-pull-all-with-glob",
        "size": 2974,
        "imports": []
    },
    {
        "name": "arrayiffy-if-string",
        "size": 501,
        "imports": []
    },
    {
        "name": "ast-compare",
        "size": 7670,
        "imports": [
            "ast-contains-only-empty-space"
        ]
    },
    {
        "name": "ast-contains-only-empty-space",
        "size": 849,
        "imports": [
            "ast-monkey-traverse"
        ]
    },
    {
        "name": "ast-deep-contains",
        "size": 5068,
        "imports": [
            "ast-monkey-traverse"
        ]
    },
    {
        "name": "ast-delete-object",
        "size": 1973,
        "imports": [
            "ast-compare",
            "ast-monkey-traverse"
        ]
    },
    {
        "name": "ast-get-object",
        "size": 2296,
        "imports": [
            "ast-compare"
        ]
    },
    {
        "name": "ast-get-values-by-key",
        "size": 2566,
        "imports": [
            "ast-monkey-traverse"
        ]
    },
    {
        "name": "ast-is-empty",
        "size": 1189,
        "imports": []
    },
    {
        "name": "ast-loose-compare",
        "size": 3045,
        "imports": [
            "ast-contains-only-empty-space"
        ]
    },
    {
        "name": "ast-monkey",
        "size": 8239,
        "imports": [
            "ast-compare",
            "ast-monkey-traverse",
            "check-types-mini",
            "util-array-object-or-both"
        ]
    },
    {
        "name": "ast-monkey-traverse",
        "size": 2662,
        "imports": []
    },
    {
        "name": "ast-monkey-util",
        "size": 1464,
        "imports": []
    },
    {
        "name": "bitbucket-slug",
        "size": 726,
        "imports": []
    },
    {
        "name": "charcode-is-valid-xml-name-character",
        "size": 1594,
        "imports": [
            "ranges-is-index-within"
        ]
    },
    {
        "name": "check-types-mini",
        "size": 11032,
        "imports": [
            "arrayiffy-if-string",
            "ast-monkey-traverse"
        ]
    },
    {
        "name": "chlu",
        "size": 19638,
        "imports": [
            "ast-contains-only-empty-space",
            "easy-replace"
        ]
    },
    {
        "name": "chlu-cli",
        "size": 2682,
        "imports": [
            "chlu"
        ]
    },
    {
        "name": "codsen-parser",
        "size": 18599,
        "imports": [
            "ast-monkey-util",
            "codsen-tokenizer",
            "string-find-malformed",
            "string-left-right"
        ]
    },
    {
        "name": "codsen-tokenizer",
        "size": 46689,
        "imports": [
            "html-all-known-attributes",
            "is-html-tag-opening",
            "string-left-right",
            "string-match-left-right"
        ]
    },
    {
        "name": "csv-sort",
        "size": 14144,
        "imports": [
            "csv-split-easy"
        ]
    },
    {
        "name": "csv-sort-cli",
        "size": 8887,
        "imports": [
            "csv-sort"
        ]
    },
    {
        "name": "csv-split-easy",
        "size": 4952,
        "imports": [
            "string-remove-thousand-separators"
        ]
    },
    {
        "name": "detergent",
        "size": 54472,
        "imports": [
            "all-named-html-entities",
            "ast-deep-contains",
            "html-entities-not-email-friendly",
            "ranges-apply",
            "ranges-invert",
            "ranges-process-outside",
            "ranges-push",
            "string-apostrophes",
            "string-collapse-white-space",
            "string-fix-broken-named-entities",
            "string-left-right",
            "string-range-expander",
            "string-remove-widows",
            "string-strip-html",
            "string-trim-spaces-only"
        ]
    },
    {
        "name": "easy-replace",
        "size": 9509,
        "imports": []
    },
    {
        "name": "edit-package-json",
        "size": 18225,
        "imports": [
            "ranges-apply",
            "string-left-right"
        ]
    },
    {
        "name": "email-all-chars-within-ascii",
        "size": 2022,
        "imports": [
            "check-types-mini"
        ]
    },
    {
        "name": "email-all-chars-within-ascii-cli",
        "size": 6763,
        "imports": [
            "email-all-chars-within-ascii"
        ]
    },
    {
        "name": "email-comb",
        "size": 62380,
        "imports": [
            "array-pull-all-with-glob",
            "ast-is-empty",
            "codsen-tokenizer",
            "ranges-apply",
            "ranges-push",
            "regex-empty-conditional-comments",
            "string-extract-class-names",
            "string-left-right",
            "string-match-left-right",
            "string-range-expander",
            "string-uglify"
        ]
    },
    {
        "name": "emlint",
        "size": 316731,
        "imports": [
            "ast-monkey-traverse",
            "ast-monkey-util",
            "codsen-parser",
            "html-all-known-attributes",
            "html-entities-not-email-friendly",
            "is-language-code",
            "is-media-descriptor",
            "is-relative-uri",
            "string-find-malformed",
            "string-fix-broken-named-entities",
            "string-left-right",
            "string-match-left-right",
            "string-process-comma-separated"
        ]
    },
    {
        "name": "eslint-plugin-row-num",
        "size": 350,
        "imports": [
            "js-row-num"
        ]
    },
    {
        "name": "generate-atomic-css",
        "size": 20710,
        "imports": [
            "ranges-apply",
            "string-left-right"
        ]
    },
    {
        "name": "generate-atomic-css-cli",
        "size": 4546,
        "imports": [
            "generate-atomic-css"
        ]
    },
    {
        "name": "gulp-email-remove-unused-css",
        "size": 834,
        "imports": [
            "email-comb"
        ]
    },
    {
        "name": "html-all-known-attributes",
        "size": 14393,
        "imports": []
    },
    {
        "name": "html-crush",
        "size": 32721,
        "imports": [
            "ranges-apply",
            "ranges-push",
            "string-left-right",
            "string-match-left-right",
            "string-range-expander"
        ]
    },
    {
        "name": "html-entities-not-email-friendly",
        "size": 79286,
        "imports": []
    },
    {
        "name": "html-img-alt",
        "size": 10652,
        "imports": [
            "check-types-mini",
            "ranges-apply",
            "ranges-push",
            "string-unfancy"
        ]
    },
    {
        "name": "is-html-tag-opening",
        "size": 4855,
        "imports": [
            "string-match-left-right"
        ]
    },
    {
        "name": "is-language-code",
        "size": 79048,
        "imports": []
    },
    {
        "name": "is-media-descriptor",
        "size": 14370,
        "imports": [
            "string-process-comma-separated"
        ]
    },
    {
        "name": "is-relative-uri",
        "size": 8394,
        "imports": []
    },
    {
        "name": "js-row-num",
        "size": 6695,
        "imports": [
            "ranges-apply",
            "ranges-push"
        ]
    },
    {
        "name": "js-row-num-cli",
        "size": 5315,
        "imports": [
            "arrayiffy-if-string",
            "js-row-num"
        ]
    },
    {
        "name": "json-comb",
        "size": 6884,
        "imports": [
            "json-comb-core"
        ]
    },
    {
        "name": "json-comb-core",
        "size": 13727,
        "imports": [
            "object-fill-missing-keys",
            "object-flatten-all-arrays",
            "object-merge-advanced",
            "object-no-new-keys",
            "object-set-all-values-to"
        ]
    },
    {
        "name": "json-sort-cli",
        "size": 16329,
        "imports": [
            "ast-monkey-traverse"
        ]
    },
    {
        "name": "json-variables",
        "size": 20303,
        "imports": [
            "arrayiffy-if-string",
            "ast-get-values-by-key",
            "ast-monkey-traverse",
            "ranges-apply",
            "ranges-push",
            "string-find-heads-tails",
            "string-match-left-right",
            "string-remove-duplicate-heads-tails"
        ]
    },
    {
        "name": "lect",
        "size": 73855,
        "imports": [
            "array-pull-all-with-glob",
            "arrayiffy-if-string",
            "ast-monkey-traverse",
            "bitbucket-slug",
            "object-delete-key",
            "object-merge-advanced"
        ]
    },
    {
        "name": "lerna-clean-changelogs",
        "size": 2926,
        "imports": []
    },
    {
        "name": "lerna-clean-changelogs-cli",
        "size": 7126,
        "imports": [
            "lerna-clean-changelogs"
        ]
    },
    {
        "name": "object-all-values-equal-to",
        "size": 2180,
        "imports": []
    },
    {
        "name": "object-delete-key",
        "size": 2184,
        "imports": [
            "ast-is-empty",
            "ast-monkey",
            "util-array-object-or-both"
        ]
    },
    {
        "name": "object-fill-missing-keys",
        "size": 5290,
        "imports": [
            "arrayiffy-if-string",
            "object-all-values-equal-to",
            "object-merge-advanced"
        ]
    },
    {
        "name": "object-flatten-all-arrays",
        "size": 2006,
        "imports": []
    },
    {
        "name": "object-flatten-referencing",
        "size": 11417,
        "imports": [
            "str-indexes-of-plus"
        ]
    },
    {
        "name": "object-merge-advanced",
        "size": 14866,
        "imports": [
            "array-includes-with-glob",
            "arrayiffy-if-string",
            "util-nonempty"
        ]
    },
    {
        "name": "object-no-new-keys",
        "size": 3384,
        "imports": []
    },
    {
        "name": "object-set-all-values-to",
        "size": 1147,
        "imports": []
    },
    {
        "name": "ranges-apply",
        "size": 4503,
        "imports": [
            "ranges-merge"
        ]
    },
    {
        "name": "ranges-crop",
        "size": 3227,
        "imports": [
            "ranges-merge"
        ]
    },
    {
        "name": "ranges-ent-decode",
        "size": 2983,
        "imports": [
            "ranges-merge"
        ]
    },
    {
        "name": "ranges-invert",
        "size": 4310,
        "imports": [
            "ranges-crop",
            "ranges-merge"
        ]
    },
    {
        "name": "ranges-is-index-within",
        "size": 1077,
        "imports": []
    },
    {
        "name": "ranges-merge",
        "size": 5036,
        "imports": [
            "ranges-sort"
        ]
    },
    {
        "name": "ranges-process-outside",
        "size": 2417,
        "imports": [
            "ranges-crop",
            "ranges-invert"
        ]
    },
    {
        "name": "ranges-push",
        "size": 7433,
        "imports": [
            "ranges-merge",
            "string-collapse-leading-whitespace",
            "string-trim-spaces-only"
        ]
    },
    {
        "name": "ranges-regex",
        "size": 2072,
        "imports": [
            "ranges-merge"
        ]
    },
    {
        "name": "ranges-sort",
        "size": 2711,
        "imports": []
    },
    {
        "name": "regex-empty-conditional-comments",
        "size": 368,
        "imports": []
    },
    {
        "name": "str-indexes-of-plus",
        "size": 2275,
        "imports": []
    },
    {
        "name": "string-apostrophes",
        "size": 18095,
        "imports": [
            "ranges-apply"
        ]
    },
    {
        "name": "string-character-is-astral-surrogate",
        "size": 1202,
        "imports": []
    },
    {
        "name": "string-collapse-leading-whitespace",
        "size": 3399,
        "imports": []
    },
    {
        "name": "string-collapse-white-space",
        "size": 18341,
        "imports": [
            "ranges-apply",
            "ranges-merge",
            "string-match-left-right"
        ]
    },
    {
        "name": "string-convert-indexes",
        "size": 5241,
        "imports": [
            "ast-monkey"
        ]
    },
    {
        "name": "string-extract-class-names",
        "size": 3735,
        "imports": [
            "string-left-right"
        ]
    },
    {
        "name": "string-find-heads-tails",
        "size": 12549,
        "imports": [
            "arrayiffy-if-string",
            "string-match-left-right"
        ]
    },
    {
        "name": "string-find-malformed",
        "size": 4684,
        "imports": [
            "string-left-right"
        ]
    },
    {
        "name": "string-fix-broken-named-entities",
        "size": 38026,
        "imports": [
            "all-named-html-entities",
            "string-left-right"
        ]
    },
    {
        "name": "string-left-right",
        "size": 10998,
        "imports": []
    },
    {
        "name": "string-match-left-right",
        "size": 13231,
        "imports": [
            "arrayiffy-if-string",
            "string-character-is-astral-surrogate"
        ]
    },
    {
        "name": "string-process-comma-separated",
        "size": 6452,
        "imports": []
    },
    {
        "name": "string-range-expander",
        "size": 8442,
        "imports": []
    },
    {
        "name": "string-remove-duplicate-heads-tails",
        "size": 8148,
        "imports": [
            "arrayiffy-if-string",
            "ranges-apply",
            "ranges-push",
            "string-match-left-right",
            "string-trim-spaces-only"
        ]
    },
    {
        "name": "string-remove-thousand-separators",
        "size": 3614,
        "imports": [
            "ranges-apply",
            "ranges-push"
        ]
    },
    {
        "name": "string-remove-widows",
        "size": 17884,
        "imports": [
            "arrayiffy-if-string",
            "ranges-apply",
            "ranges-push",
            "string-left-right",
            "string-match-left-right"
        ]
    },
    {
        "name": "string-split-by-whitespace",
        "size": 2005,
        "imports": [
            "ranges-is-index-within"
        ]
    },
    {
        "name": "string-strip-html",
        "size": 33962,
        "imports": [
            "ranges-apply",
            "ranges-push",
            "string-left-right"
        ]
    },
    {
        "name": "string-trim-spaces-only",
        "size": 2140,
        "imports": []
    },
    {
        "name": "string-uglify",
        "size": 5634,
        "imports": []
    },
    {
        "name": "string-unfancy",
        "size": 1341,
        "imports": []
    },
    {
        "name": "update-versions",
        "size": 12624,
        "imports": [
            "edit-package-json"
        ]
    },
    {
        "name": "util-array-object-or-both",
        "size": 2329,
        "imports": []
    },
    {
        "name": "util-nonempty",
        "size": 812,
        "imports": []
    }
]